Начало павки
.......   -==   2304311. GET MAIN DATA   ==- (21.06.2013 12:34:42) 

.......   ~~~   TRACE***   ~~~ (21.06.2013 12:34:42) 
2304311. get heats
.......   ~~~   TRACE***   ~~~ (21.06.2013 12:34:42) 
2304311. get grade spec
.......   ~~~   TRACE***   ~~~ (21.06.2013 12:34:42) 
2304311. get hot metal
.......   ~~~   TRACE***   ~~~ (21.06.2013 12:34:42) 
2304311. get hot metal lades
.......   ~~~   TRACE***   ~~~ (21.06.2013 12:34:42) 
2304311. get scrap
.......   ~~~   TRACE***   ~~~ (21.06.2013 12:34:42) 
2304311. get tap
.......   ~~~   TRACE***   ~~~ (21.06.2013 12:34:42) 
2304311. get Otk
.......   ~~~   TRACE***   ~~~ (21.06.2013 12:34:42) 
2304311. get blow
.......   ~~~   TRACE***   ~~~ (21.06.2013 12:34:42) 
2304311. get slag
.......   ~~~   TRACE***   ~~~ (21.06.2013 12:34:42) 
2304311. get zond
.......   ~~~   TRACE***   ~~~ (21.06.2013 12:34:42) 
2304311. get blowings
.......   ~~~   TRACE***   ~~~ (21.06.2013 12:34:42) 
2304311. get correction
.......   ~~~   TRACE***   ~~~ (21.06.2013 12:34:42) 
2304311. get addition cv tor
.......   ~~~   TRACE***   ~~~ (21.06.2013 12:34:42) 
2304311. get addition cv
.......   ~~~   TRACE***   ~~~ (21.06.2013 12:34:42) 
2304311. get addition ldl
.......   -==   2304311. GET MAIN DATA. DONE   ==- (21.06.2013 12:34:42) 

.......   -==   2304311. GET ADDITIONAL DATA   ==- (21.06.2013 12:34:42) 

.......   ~~~   TRACE***   ~~~ (21.06.2013 12:34:42) 
2304311. get lance mode
.......   ~~~   TRACE***   ~~~ (21.06.2013 12:34:42) 
2304311. get lance mode
.......   ~~~   TRACE***   ~~~ (21.06.2013 12:36:16) 
2304311. get tract mode
.......   ~~~   TRACE***   ~~~ (21.06.2013 12:36:16) 
2304311. get final hot metal
.......   ~~~   TRACE***   ~~~ (21.06.2013 12:36:16) 
2304311. get target values
.......   ~~~   TRACE***   ~~~ (21.06.2013 12:36:16) 
2304311. get mass steel
.......   ~~~   TRACE***   ~~~ (21.06.2013 12:36:16) 
2304311. get quality
.......   ~~~   TRACE***   ~~~ (21.06.2013 12:36:16) 
2304311. get ignition
.......   ~~~   TRACE***   ~~~ (21.06.2013 12:36:16) 
2304311. get slag out
.......   ~~~   TRACE***   ~~~ (21.06.2013 12:36:16) 
2304311. get hot metal xim
.......   ~~~   TRACE***   ~~~ (21.06.2013 12:36:17) 
2304311. get steel xim
.......   ~~~   TRACE***   ~~~ (21.06.2013 12:36:17) 
2304311. get slag xim
.......   ~~~   TRACE***   ~~~ (21.06.2013 12:36:17) 
2304311. get heat quality
.......   ~~~   TRACE***   ~~~ (21.06.2013 12:36:17) 
2304311. get models data
.......   ~~~   TRACE***   ~~~ (21.06.2013 12:36:17) 
2304311. get charge data
.......   -==   2304311. GET ADDITIONAL DATA. DONE   ==- (21.06.2013 12:36:17) 

.......   ~~~   TRACE***   ~~~ (21.06.2013 12:36:17) 
2304311 Excel sheet general.
.......   ~~~   TRACE***   ~~~ (21.06.2013 12:36:17) 
2304311 Excel sheet general. Done
.......   ~~~   TRACE***   ~~~ (21.06.2013 12:36:17) 
299411 Excel sheet Q1.
.......   ~~~   TRACE***   ~~~ (21.06.2013 12:36:17) 
299411 Excel sheet Q1. Done
.......   ~~~   TRACE***   ~~~ (21.06.2013 12:36:17) 
299411 Excel sheet Q2.
.......   ~~~   TRACE***   ~~~ (21.06.2013 12:36:17) 
299411 Excel sheet Q2. Done
.......   ~~~   TRACE***   ~~~ (21.06.2013 12:36:17) 
299411 Excel sheet Q3.
.......   ~~~   TRACE***   ~~~ (21.06.2013 12:36:17) 
299411 Excel sheet Q3. Done
.......   ~~~   TRACE***   ~~~ (21.06.2013 12:36:17) 
2304311 Export quality control.
.......   ~~~   TRACE***   ~~~ (21.06.2013 12:36:17) 
2304311 Export quality control. Done
.......   ~~~   TRACE***   ~~~ (21.06.2013 12:36:17) 
2304311 Export heat control.
.......   ~~~   TRACE***   ~~~ (21.06.2013 12:36:17) 
2304311 Export heat control. done
.......   ~~~   TRACE***   ~~~ (21.06.2013 12:36:17) 
2304311 Export models data.
.......   ~~~   TRACE***   ~~~ (21.06.2013 12:36:17) 
2304311 Export models data. Done
.......   ~~~   TRACE***   ~~~ (21.06.2013 12:36:17) 
2304311 Export chemestry  models data.
.......   ~~~   TRACE***   ~~~ (21.06.2013 12:36:17) 
2304311 Export models data. Done
.......   ~~~   TRACE***   ~~~ (21.06.2013 12:36:17) 
2304311 Export charge data.
.......   ~~~   TRACE***   ~~~ (21.06.2013 12:36:17) 
2304311 Export charge data. Done
.......   ~~~   TRACE***   ~~~ (21.06.2013 12:36:17) 
2304311 Export charge data.
.......   ~~~   TRACE***   ~~~ (21.06.2013 12:36:17) 
2304311 Export charge data. Done
.......   ~~~   TRACE***   ~~~ (21.06.2013 12:36:17) 
Export Chemestries.
.......   ~~~   TRACE***   ~~~ (21.06.2013 12:36:19) 
Export Chemestries DONE.
.......   ~~~   TRACE***   ~~~ (21.06.2013 12:36:20) 
Export fine
