^D:\РАБОТА 2\EXCEL_ВЫГРУЗКИ, ИСХ\ИСХОДНИКИ\HEATEXTRACTOR\HEATEXTRACTOR.RESX|D:\РАБОТА 2\EXCEL_ВЫГРУЗКИ, ИСХ\ИСХОДНИКИ\HEATEXTRACTOR\PROPERTIES\RESOURCES.RESX
D:\Работа 2\EXCEL_Выгрузки, исх\исходники\HEATEXTRACTOR\OBJ\X86\DEBUG\HEATEXTRACTOR.HEATEXTRACTOR.RESOURCES
D:\Работа 2\EXCEL_Выгрузки, исх\исходники\HEATEXTRACTOR\OBJ\X86\DEBUG\HEATEXTRACTOR.PROPERTIES.RESOURCES.RESOURCES
^D:\РАБОТА 2\EXCEL_ВЫГРУЗКИ, ИСХ\ИСХОДНИКИ\HEATEXTRACTOR + 2 СОБЫТИЯ (ЖУКОВ)\HEATEXTRACTOR.RESX|D:\РАБОТА 2\EXCEL_ВЫГРУЗКИ, ИСХ\ИСХОДНИКИ\HEATEXTRACTOR + 2 СОБЫТИЯ (ЖУКОВ)\PROPERTIES\RESOURCES.RESX
D:\Работа 2\EXCEL_Выгрузки, исх\исходники\HEATEXTRACTOR + 2 события (Жуков)\OBJ\X86\DEBUG\HEATEXTRACTOR.HEATEXTRACTOR.RESOURCES
D:\Работа 2\EXCEL_Выгрузки, исх\исходники\HEATEXTRACTOR + 2 события (Жуков)\OBJ\X86\DEBUG\HEATEXTRACTOR.PROPERTIES.RESOURCES.RESOURCES
^D:\РАБОТА 2\EXCEL_ВЫГРУЗКИ, ИСХ\ИСХОДНИКИ\HEATEXTRACTOR + 2 СОБЫТИЯ (ЖУКОВ) В SHEDULE - КОПИЯ\HEATEXTRACTOR.RESX|D:\РАБОТА 2\EXCEL_ВЫГРУЗКИ, ИСХ\ИСХОДНИКИ\HEATEXTRACTOR + 2 СОБЫТИЯ (ЖУКОВ) В SHEDULE - КОПИЯ\PROPERTIES\RESOURCES.RESX
D:\Работа 2\EXCEL_Выгрузки, исх\исходники\HEATEXTRACTOR + 2 события (Жуков) в SHEDULE - копия\OBJ\X86\DEBUG\HEATEXTRACTOR.HEATEXTRACTOR.RESOURCES
D:\Работа 2\EXCEL_Выгрузки, исх\исходники\HEATEXTRACTOR + 2 события (Жуков) в SHEDULE - копия\OBJ\X86\DEBUG\HEATEXTRACTOR.PROPERTIES.RESOURCES.RESOURCES
^D:\РАБОТА 2\EXCEL_ВЫГРУЗКИ, ИСХ\ИСХОДНИКИ\HEATEXTRACTOR + 5 СОБЫТИЯ (ЖУКОВ) В SHEDULE\HEATEXTRACTOR.RESX|D:\РАБОТА 2\EXCEL_ВЫГРУЗКИ, ИСХ\ИСХОДНИКИ\HEATEXTRACTOR + 5 СОБЫТИЯ (ЖУКОВ) В SHEDULE\PROPERTIES\RESOURCES.RESX
D:\Работа 2\EXCEL_Выгрузки, исх\исходники\HEATEXTRACTOR + 5 события (Жуков) в SHEDULE\OBJ\X86\DEBUG\HEATEXTRACTOR.HEATEXTRACTOR.RESOURCES
D:\Работа 2\EXCEL_Выгрузки, исх\исходники\HEATEXTRACTOR + 5 события (Жуков) в SHEDULE\OBJ\X86\DEBUG\HEATEXTRACTOR.PROPERTIES.RESOURCES.RESOURCES
^D:\РАБОТА 2\EXCEL_ВЫГРУЗКИ, ИСХ\ИСХОДНИКИ\HEATEXTRACTOR + 5 СОБЫТИЯ (ЖУКОВ) В SHEDULE + КУРКИН\HEATEXTRACTOR.RESX|D:\РАБОТА 2\EXCEL_ВЫГРУЗКИ, ИСХ\ИСХОДНИКИ\HEATEXTRACTOR + 5 СОБЫТИЯ (ЖУКОВ) В SHEDULE + КУРКИН\PROPERTIES\RESOURCES.RESX
D:\Работа 2\EXCEL_Выгрузки, исх\исходники\HEATEXTRACTOR + 5 события (Жуков) в SHEDULE + Куркин\OBJ\X86\DEBUG\HEATEXTRACTOR.HEATEXTRACTOR.RESOURCES
D:\Работа 2\EXCEL_Выгрузки, исх\исходники\HEATEXTRACTOR + 5 события (Жуков) в SHEDULE + Куркин\OBJ\X86\DEBUG\HEATEXTRACTOR.PROPERTIES.RESOURCES.RESOURCES
^D:\РАБОТА 2\EXCEL_ВЫГРУЗКИ, ИСХ\ИСХОДНИКИ\HEATEXTRACTOR +ШИХТА TRY-CATCH\HEATEXTRACTOR.RESX|D:\РАБОТА 2\EXCEL_ВЫГРУЗКИ, ИСХ\ИСХОДНИКИ\HEATEXTRACTOR +ШИХТА TRY-CATCH\PROPERTIES\RESOURCES.RESX
D:\Работа 2\EXCEL_Выгрузки, исх\исходники\HEATEXTRACTOR +Шихта TRY-CATCH\OBJ\X86\DEBUG\HEATEXTRACTOR.HEATEXTRACTOR.RESOURCES
D:\Работа 2\EXCEL_Выгрузки, исх\исходники\HEATEXTRACTOR +Шихта TRY-CATCH\OBJ\X86\DEBUG\HEATEXTRACTOR.PROPERTIES.RESOURCES.RESOURCES
^D:\РАБОТА 2\EXCEL_ВЫГРУЗКИ, ИСХ\ИСХОДНИКИ\HEATEXTRACTOR +ШИХТА TRY-CATCH_CONN\HEATEXTRACTOR.RESX|D:\РАБОТА 2\EXCEL_ВЫГРУЗКИ, ИСХ\ИСХОДНИКИ\HEATEXTRACTOR +ШИХТА TRY-CATCH_CONN\PROPERTIES\RESOURCES.RESX
D:\Работа 2\EXCEL_Выгрузки, исх\исходники\HEATEXTRACTOR +Шихта TRY-CATCH_CONN\OBJ\X86\DEBUG\HEATEXTRACTOR.HEATEXTRACTOR.RESOURCES
D:\Работа 2\EXCEL_Выгрузки, исх\исходники\HEATEXTRACTOR +Шихта TRY-CATCH_CONN\OBJ\X86\DEBUG\HEATEXTRACTOR.PROPERTIES.RESOURCES.RESOURCES
^D:\РАБОТА 2\EXCEL_ВЫГРУЗКИ, ИСХ\ИСХОДНИКИ\HEATEXTRACTOR\HEATEXTRACTOR +ШИХТА TRY-CATCH_CONN + СОБЫТИЯ В ШЕДУЛЮ\HEATEXTRACTOR.RESX|D:\РАБОТА 2\EXCEL_ВЫГРУЗКИ, ИСХ\ИСХОДНИКИ\HEATEXTRACTOR\HEATEXTRACTOR +ШИХТА TRY-CATCH_CONN + СОБЫТИЯ В ШЕДУЛЮ\PROPERTIES\RESOURCES.RESX
D:\Работа 2\EXCEL_Выгрузки, исх\исходники\HEATEXTRACTOR\HEATEXTRACTOR +Шихта TRY-CATCH_CONN + события в шедулю\OBJ\X86\DEBUG\HEATEXTRACTOR.HEATEXTRACTOR.RESOURCES
D:\Работа 2\EXCEL_Выгрузки, исх\исходники\HEATEXTRACTOR\HEATEXTRACTOR +Шихта TRY-CATCH_CONN + события в шедулю\OBJ\X86\DEBUG\HEATEXTRACTOR.PROPERTIES.RESOURCES.RESOURCES
^D:\РАБОТА 2\EXCEL_ВЫГРУЗКИ, ИСХ\ИСХОДНИКИ\HEATEXTRACTOR\HEATEXTRACTOR +ШИХТА TRY-CATCH_CONN ШЕДУЛЮ\HEATEXTRACTOR.RESX|D:\РАБОТА 2\EXCEL_ВЫГРУЗКИ, ИСХ\ИСХОДНИКИ\HEATEXTRACTOR\HEATEXTRACTOR +ШИХТА TRY-CATCH_CONN ШЕДУЛЮ\PROPERTIES\RESOURCES.RESX
D:\Работа 2\EXCEL_Выгрузки, исх\исходники\HEATEXTRACTOR\HEATEXTRACTOR +Шихта TRY-CATCH_CONN шедулю\OBJ\X86\DEBUG\HEATEXTRACTOR.HEATEXTRACTOR.RESOURCES
D:\Работа 2\EXCEL_Выгрузки, исх\исходники\HEATEXTRACTOR\HEATEXTRACTOR +Шихта TRY-CATCH_CONN шедулю\OBJ\X86\DEBUG\HEATEXTRACTOR.PROPERTIES.RESOURCES.RESOURCES
^D:\РАБОТА 2\EXCEL_ВЫГРУЗКИ, ИСХ\ИСХОДНИКИ\HEATEXTRACTOR\HEATEXTRACTOR +ШИХТА TRY-CATCH_CONN ШЕДУЛ - КОПИЯ\HEATEXTRACTOR.RESX|D:\РАБОТА 2\EXCEL_ВЫГРУЗКИ, ИСХ\ИСХОДНИКИ\HEATEXTRACTOR\HEATEXTRACTOR +ШИХТА TRY-CATCH_CONN ШЕДУЛ - КОПИЯ\PROPERTIES\RESOURCES.RESX
D:\Работа 2\EXCEL_Выгрузки, исх\исходники\HEATEXTRACTOR\HEATEXTRACTOR +Шихта TRY-CATCH_CONN шедул - копия\OBJ\X86\DEBUG\HEATEXTRACTOR.HEATEXTRACTOR.RESOURCES
D:\Работа 2\EXCEL_Выгрузки, исх\исходники\HEATEXTRACTOR\HEATEXTRACTOR +Шихта TRY-CATCH_CONN шедул - копия\OBJ\X86\DEBUG\HEATEXTRACTOR.PROPERTIES.RESOURCES.RESOURCES
^D:\РАБОТА 2\EXCEL_ВЫГРУЗКИ, ИСХ\ИСХОДНИКИ\HEATEXTRACTOR\HEATEXTRACTOR +ШИХТА TRY-CATCH_CONN ШЕДУЛ - КОПИЯ - КОПИЯ\HEATEXTRACTOR.RESX|D:\РАБОТА 2\EXCEL_ВЫГРУЗКИ, ИСХ\ИСХОДНИКИ\HEATEXTRACTOR\HEATEXTRACTOR +ШИХТА TRY-CATCH_CONN ШЕДУЛ - КОПИЯ - КОПИЯ\PROPERTIES\RESOURCES.RESX
D:\Работа 2\EXCEL_Выгрузки, исх\исходники\HEATEXTRACTOR\HEATEXTRACTOR +Шихта TRY-CATCH_CONN шедул - копия - копия\OBJ\X86\DEBUG\HEATEXTRACTOR.HEATEXTRACTOR.RESOURCES
D:\Работа 2\EXCEL_Выгрузки, исх\исходники\HEATEXTRACTOR\HEATEXTRACTOR +Шихта TRY-CATCH_CONN шедул - копия - копия\OBJ\X86\DEBUG\HEATEXTRACTOR.PROPERTIES.RESOURCES.RESOURCES
